         run       event       nTopo   nIdTracks  nTauTracks       nTaus      nMuons       nElec   nTrueElec   nFakeElec       nPhot   nTruePhot   nFakePhot
      327265   186524665         430         416           0           0           0           1           0           1          12           0          12
      327265   186525031         451         430           0           0           0           2           0           2           6           0           6
      327265   186542447         338         293           0           0           0           2           0           2           8           0           8
      327265   186543405         425         320           0           0           0           1           0           1           9           0           9
      327265   186548387         537         513           0           0           0           4           0           4          22           0          22
